…
  dplyr::mutate(closeness = tidygraph::centrality_closeness())
#> # A tbl_graph: 5 nodes and 7 edges
#> #
#> # A directed acyclic multigraph with 1 component
#> #
#> # A tibble: 5 × 5
#>   nodeid name       label                  mode      closeness
#>    <int> <chr>      <chr>                  <chr>         <dbl>
#> 1      1 actor1     Actor 1                actor           0.5
#> 2      2 actor2     Actor 2                actor           1  
#> 3      3 actor3     Actress 3              actor           0.5
#> 4      4 statement1 The fascists will lose statement     NaN  
#> 5      5 statement2 Owls are great         statement     NaN  
#> #
#> # A tibble: 7 × 4
#>    from    to stance     timestamp 
#>   <int> <int> <chr>      <date>    
#> 1     1     4 support    2012-02-01
#> 2     1     4 support    2013-02-01
#> 3     1     5 irrelevant 2014-02-01
#> # ℹ 4 more rows
```
…
  get_tbl_graph()
#> # A tbl_graph: 5 nodes and 4 edges
#> #
#> # A directed acyclic multigraph with 3 components
#> #
#> # A tibble: 5 × 4
#>   nodeid name       label                  mode     
#>    <int> <chr>      <chr>                  <chr>    
#> 1      1 actor1     Actor 1                actor    
#> 2      2 actor2     Actor 2                actor    
#> 3      3 actor3     Actress 3              actor    
#> 4      4 statement1 The fascists will lose statement
#> 5      5 statement2 Owls are great         statement
#> #
#> # A tibble: 4 × 4
#>    from    to stance     timestamp 
#>   <int> <int> <chr>      <date>    
#> 1     1     4 support    2012-02-01
#> 2     1     4 support    2013-02-01
#> 3     1     5 irrelevant 2014-02-01
#> # ℹ 1 more row
```
…
